<svg viewBox="0 0 38 35" fill="none" xmlns="http://www.w3.org/2000/svg">
<g filter="url(#filter0_d_285_152)">
<path d="M19 27L16.825 25.0578C9.1 18.1864 4 13.6545 4 8.09264C4 3.56076 7.63 0 12.25 0C14.86 0 17.365 1.19183 19 3.0752C20.635 1.19183 23.14 0 25.75 0C30.37 0 34 3.56076 34 8.09264C34 13.6545 28.9 18.1864 21.175 25.0725L19 27Z" fill="white"/>
</g>
<defs>
<filter id="filter0_d_285_152" x="0" y="0" width="38" height="35" filterUnits="userSpaceOnUse" color-interpolation-filters="sRGB">
<feFlood flood-opacity="0" result="BackgroundImageFix"/>
<feColorMatrix in="SourceAlpha" type="matrix" values="0 0 0 0 0 0 0 0 0 0 0 0 0 0 0 0 0 0 127 0" result="hardAlpha"/>
<feOffset dy="4"/>
<feGaussianBlur stdDeviation="2"/>
<feComposite in2="hardAlpha" operator="out"/>
<feColorMatrix type="matrix" values="0 0 0 0 0 0 0 0 0 0 0 0 0 0 0 0 0 0 0.25 0"/>
<feBlend mode="normal" in2="BackgroundImageFix" result="effect1_dropShadow_285_152"/>
<feBlend mode="normal" in="SourceGraphic" in2="effect1_dropShadow_285_152" result="shape"/>
</filter>
</defs>
</svg>
